<?xml version="1.0" encoding="utf-8"?>
<!-- Generator: Adobe Illustrator 23.0.1, SVG Export Plug-In . SVG Version: 6.00 Build 0)  -->
<svg version="1.1" id="Capa_1" xmlns="http://www.w3.org/2000/svg" xmlns:xlink="http://www.w3.org/1999/xlink" x="0px" y="0px"
	 viewBox="0 0 600 600" style="enable-background:new 0 0 600 600;" xml:space="preserve">
<style type="text/css">
	.st0{fill:#ECECF1;}
	.st1{fill:#B5ACC9;}
	.st2{fill:#4E3881;}
	.st3{fill:#F9F9F9;}
	.st4{fill:#523D83;}
	.st5{fill:#FFFFFF;}
	.st6{fill:#D7D1E3;}
	.st7{clip-path:url(#SVGID_2_);}
	.st8{clip-path:url(#SVGID_4_);}
	.st9{clip-path:url(#SVGID_6_);}
	.st10{opacity:0.4;clip-path:url(#SVGID_8_);}
	.st11{opacity:0.4;clip-path:url(#SVGID_12_);}
	.st12{opacity:0.4;clip-path:url(#SVGID_18_);}
	.st13{clip-path:url(#SVGID_6_);fill:#4F3783;}
	.st14{clip-path:url(#SVGID_22_);fill:#B9AFCD;}
	.st15{clip-path:url(#SVGID_22_);}
	.st16{clip-path:url(#SVGID_22_);fill:#4F3783;}
	.st17{clip-path:url(#SVGID_6_);fill:#FFFFFF;}
	.st18{clip-path:url(#SVGID_24_);fill:#B9AFCD;}
	
		.st19{clip-path:url(#SVGID_24_);fill:none;stroke:#4F3783;stroke-width:3.4466;stroke-linecap:round;stroke-linejoin:round;stroke-dasharray:0,6.9121;}
	.st20{clip-path:url(#SVGID_24_);fill:none;stroke:#4F3783;stroke-width:3.4466;stroke-linecap:round;stroke-linejoin:round;}
	.st21{opacity:0.54;fill:#4E3881;}
	.st22{clip-path:url(#SVGID_26_);}
	.st23{clip-path:url(#SVGID_28_);}
	.st24{clip-path:url(#SVGID_30_);}
	.st25{opacity:0.4;clip-path:url(#SVGID_32_);}
	.st26{opacity:0.4;clip-path:url(#SVGID_36_);}
	.st27{opacity:0.4;clip-path:url(#SVGID_42_);}
	.st28{clip-path:url(#SVGID_46_);fill:#4F3783;}
	.st29{clip-path:url(#SVGID_30_);fill:#CEC6DB;}
	
		.st30{clip-path:url(#SVGID_30_);fill:none;stroke:#9686B2;stroke-width:2.1311;stroke-linecap:round;stroke-linejoin:round;stroke-dasharray:0,4.2601;}
	.st31{clip-path:url(#SVGID_30_);fill:none;stroke:#9686B2;stroke-width:2.1311;stroke-linecap:round;stroke-linejoin:round;}
	
		.st32{clip-path:url(#SVGID_30_);fill:none;stroke:#B9AFCD;stroke-width:2.1311;stroke-linecap:round;stroke-linejoin:round;stroke-dasharray:0,4.258;}
	.st33{clip-path:url(#SVGID_30_);fill:none;stroke:#B9AFCD;stroke-width:2.1311;stroke-linecap:round;stroke-linejoin:round;}
	
		.st34{clip-path:url(#SVGID_30_);fill:none;stroke:#B9AFCD;stroke-width:2.1311;stroke-linecap:round;stroke-linejoin:round;stroke-dasharray:0,4.2623;}
	.st35{opacity:0.4;clip-path:url(#SVGID_48_);}
	.st36{clip-path:url(#SVGID_50_);}
	.st37{clip-path:url(#SVGID_52_);fill:#4E3881;}
	.st38{clip-path:url(#SVGID_54_);}
	.st39{clip-path:url(#SVGID_56_);fill:#4E3881;}
	.st40{clip-path:url(#SVGID_58_);}
	.st41{clip-path:url(#SVGID_60_);fill:#4E3881;}
	.st42{clip-path:url(#SVGID_62_);}
	.st43{clip-path:url(#SVGID_64_);fill:#4E3881;}
	.st44{clip-path:url(#SVGID_66_);}
	.st45{clip-path:url(#SVGID_68_);fill:#4E3881;}
	.st46{clip-path:url(#SVGID_70_);}
	.st47{clip-path:url(#SVGID_72_);fill:#4E3881;}
	.st48{clip-path:url(#SVGID_74_);}
	.st49{clip-path:url(#SVGID_76_);fill:#4E3881;}
	.st50{clip-path:url(#SVGID_78_);}
	.st51{clip-path:url(#SVGID_80_);fill:#4E3881;}
	.st52{clip-path:url(#SVGID_82_);}
	.st53{clip-path:url(#SVGID_84_);fill:#4E3881;}
	.st54{clip-path:url(#SVGID_86_);}
	.st55{clip-path:url(#SVGID_88_);fill:#4E3881;}
	.st56{clip-path:url(#SVGID_90_);}
	.st57{clip-path:url(#SVGID_92_);fill:#4E3881;}
	.st58{clip-path:url(#SVGID_94_);}
	.st59{clip-path:url(#SVGID_96_);fill:#4E3881;}
	.st60{clip-path:url(#SVGID_98_);}
	.st61{clip-path:url(#SVGID_100_);fill:#4E3881;}
	.st62{clip-path:url(#SVGID_102_);}
	.st63{clip-path:url(#SVGID_104_);fill:#4E3881;}
	.st64{clip-path:url(#SVGID_106_);}
	.st65{clip-path:url(#SVGID_108_);fill:#4E3881;}
	.st66{clip-path:url(#SVGID_110_);}
	.st67{clip-path:url(#SVGID_112_);fill:#4E3881;}
	.st68{clip-path:url(#SVGID_114_);}
	.st69{clip-path:url(#SVGID_116_);fill:#4E3881;}
	.st70{clip-path:url(#SVGID_118_);}
	.st71{clip-path:url(#SVGID_120_);fill:#4E3881;}
	.st72{clip-path:url(#SVGID_122_);}
	.st73{clip-path:url(#SVGID_124_);fill:#4E3881;}
	.st74{clip-path:url(#SVGID_126_);}
	.st75{clip-path:url(#SVGID_128_);fill:#4E3881;}
	.st76{clip-path:url(#SVGID_130_);}
	.st77{clip-path:url(#SVGID_132_);fill:#4E3881;}
	.st78{clip-path:url(#SVGID_134_);}
	.st79{clip-path:url(#SVGID_136_);fill:#4E3881;}
	.st80{clip-path:url(#SVGID_138_);}
	.st81{clip-path:url(#SVGID_140_);fill:#4E3881;}
	.st82{clip-path:url(#SVGID_142_);}
	.st83{clip-path:url(#SVGID_144_);fill:#4E3881;}
	.st84{clip-path:url(#SVGID_146_);}
	.st85{clip-path:url(#SVGID_148_);fill:#4E3881;}
	.st86{clip-path:url(#SVGID_150_);}
	.st87{clip-path:url(#SVGID_152_);fill:#4E3881;}
	.st88{clip-path:url(#SVGID_154_);}
	.st89{clip-path:url(#SVGID_156_);fill:#4E3881;}
	.st90{clip-path:url(#SVGID_158_);}
	.st91{clip-path:url(#SVGID_160_);fill:#4E3881;}
	.st92{clip-path:url(#SVGID_162_);}
	.st93{clip-path:url(#SVGID_164_);fill:#4E3881;}
	.st94{clip-path:url(#SVGID_166_);}
	.st95{clip-path:url(#SVGID_168_);fill:#4E3881;}
	.st96{clip-path:url(#SVGID_170_);}
	.st97{clip-path:url(#SVGID_172_);fill:#4E3881;}
	.st98{clip-path:url(#SVGID_174_);}
	.st99{clip-path:url(#SVGID_176_);fill:#4E3881;}
	.st100{clip-path:url(#SVGID_178_);}
	.st101{clip-path:url(#SVGID_180_);fill:#4E3881;}
	.st102{clip-path:url(#SVGID_182_);}
	.st103{clip-path:url(#SVGID_184_);fill:#4E3881;}
	.st104{clip-path:url(#SVGID_186_);}
	.st105{clip-path:url(#SVGID_188_);fill:#4E3881;}
	.st106{clip-path:url(#SVGID_190_);}
	.st107{clip-path:url(#SVGID_192_);fill:#4E3881;}
	.st108{clip-path:url(#SVGID_194_);}
	.st109{clip-path:url(#SVGID_196_);fill:#4E3881;}
	.st110{clip-path:url(#SVGID_198_);}
	.st111{clip-path:url(#SVGID_200_);fill:#4E3881;}
	.st112{clip-path:url(#SVGID_202_);}
	.st113{clip-path:url(#SVGID_204_);fill:#4E3881;}
	.st114{clip-path:url(#SVGID_206_);}
	.st115{clip-path:url(#SVGID_208_);fill:#4E3881;}
	.st116{clip-path:url(#SVGID_210_);}
	.st117{clip-path:url(#SVGID_212_);fill:#4E3881;}
	.st118{clip-path:url(#SVGID_214_);}
	.st119{clip-path:url(#SVGID_216_);fill:#4E3881;}
	.st120{clip-path:url(#SVGID_218_);}
	.st121{clip-path:url(#SVGID_220_);fill:#4E3881;}
	.st122{clip-path:url(#SVGID_222_);}
	.st123{clip-path:url(#SVGID_224_);fill:#4E3881;}
	.st124{clip-path:url(#SVGID_48_);fill:#4E3881;}
	.st125{clip-path:url(#SVGID_226_);}
	.st126{clip-path:url(#SVGID_228_);fill:#4E3881;}
	.st127{clip-path:url(#SVGID_230_);}
	.st128{clip-path:url(#SVGID_232_);}
	.st129{clip-path:url(#SVGID_234_);}
	.st130{opacity:0.4;clip-path:url(#SVGID_236_);}
	.st131{opacity:0.4;clip-path:url(#SVGID_240_);}
	.st132{opacity:0.4;clip-path:url(#SVGID_246_);}
	.st133{clip-path:url(#SVGID_250_);fill:#4F3783;}
	.st134{clip-path:url(#SVGID_234_);fill:#4F3783;}
	.st135{opacity:0.4;clip-path:url(#SVGID_252_);}
	.st136{clip-path:url(#SVGID_254_);}
	.st137{clip-path:url(#SVGID_256_);fill:#523D83;}
	.st138{clip-path:url(#SVGID_258_);}
	.st139{clip-path:url(#SVGID_260_);fill:#523D83;}
	.st140{clip-path:url(#SVGID_262_);}
	.st141{clip-path:url(#SVGID_264_);fill:#523D83;}
	.st142{clip-path:url(#SVGID_266_);}
	.st143{clip-path:url(#SVGID_268_);fill:#523D83;}
	.st144{clip-path:url(#SVGID_270_);}
	.st145{clip-path:url(#SVGID_272_);fill:#523D83;}
	.st146{clip-path:url(#SVGID_274_);}
	.st147{clip-path:url(#SVGID_276_);fill:#523D83;}
	.st148{clip-path:url(#SVGID_278_);}
	.st149{clip-path:url(#SVGID_280_);fill:#523D83;}
	.st150{clip-path:url(#SVGID_282_);}
	.st151{clip-path:url(#SVGID_284_);fill:#523D83;}
	.st152{clip-path:url(#SVGID_286_);}
	.st153{clip-path:url(#SVGID_288_);fill:#523D83;}
	.st154{clip-path:url(#SVGID_290_);}
	.st155{clip-path:url(#SVGID_292_);fill:#523D83;}
	.st156{clip-path:url(#SVGID_294_);}
	.st157{clip-path:url(#SVGID_296_);fill:#523D83;}
	.st158{clip-path:url(#SVGID_298_);}
	.st159{clip-path:url(#SVGID_300_);fill:#523D83;}
	.st160{clip-path:url(#SVGID_302_);}
	.st161{clip-path:url(#SVGID_304_);fill:#523D83;}
	.st162{clip-path:url(#SVGID_306_);}
	.st163{clip-path:url(#SVGID_308_);fill:#523D83;}
	.st164{clip-path:url(#SVGID_310_);}
	.st165{clip-path:url(#SVGID_312_);fill:#523D83;}
	.st166{clip-path:url(#SVGID_314_);}
	.st167{clip-path:url(#SVGID_316_);fill:#523D83;}
	.st168{clip-path:url(#SVGID_318_);}
	.st169{clip-path:url(#SVGID_320_);fill:#523D83;}
	.st170{clip-path:url(#SVGID_322_);}
	.st171{clip-path:url(#SVGID_324_);fill:#523D83;}
	.st172{clip-path:url(#SVGID_326_);}
	.st173{clip-path:url(#SVGID_328_);fill:#523D83;}
	.st174{clip-path:url(#SVGID_330_);}
	.st175{clip-path:url(#SVGID_332_);fill:#523D83;}
	.st176{clip-path:url(#SVGID_334_);}
	.st177{clip-path:url(#SVGID_336_);fill:#523D83;}
	.st178{clip-path:url(#SVGID_338_);}
	.st179{clip-path:url(#SVGID_340_);fill:#523D83;}
	.st180{clip-path:url(#SVGID_342_);}
	.st181{clip-path:url(#SVGID_344_);fill:#523D83;}
	.st182{clip-path:url(#SVGID_346_);}
	.st183{clip-path:url(#SVGID_348_);fill:#523D83;}
	.st184{clip-path:url(#SVGID_350_);}
	.st185{clip-path:url(#SVGID_352_);fill:#523D83;}
	.st186{clip-path:url(#SVGID_354_);}
	.st187{clip-path:url(#SVGID_356_);fill:#523D83;}
	.st188{clip-path:url(#SVGID_358_);}
	.st189{clip-path:url(#SVGID_360_);fill:#523D83;}
	.st190{clip-path:url(#SVGID_362_);}
	.st191{clip-path:url(#SVGID_364_);fill:#523D83;}
	.st192{clip-path:url(#SVGID_366_);}
	.st193{clip-path:url(#SVGID_368_);fill:#523D83;}
	.st194{clip-path:url(#SVGID_370_);}
	.st195{clip-path:url(#SVGID_372_);fill:#523D83;}
	.st196{clip-path:url(#SVGID_374_);}
	.st197{clip-path:url(#SVGID_376_);fill:#523D83;}
	.st198{clip-path:url(#SVGID_378_);}
	.st199{clip-path:url(#SVGID_380_);fill:#523D83;}
	.st200{clip-path:url(#SVGID_382_);}
	.st201{clip-path:url(#SVGID_384_);fill:#523D83;}
	.st202{clip-path:url(#SVGID_386_);}
	.st203{clip-path:url(#SVGID_388_);fill:#523D83;}
	.st204{clip-path:url(#SVGID_390_);}
	.st205{clip-path:url(#SVGID_392_);fill:#523D83;}
	.st206{clip-path:url(#SVGID_394_);}
	.st207{clip-path:url(#SVGID_396_);fill:#523D83;}
	.st208{clip-path:url(#SVGID_398_);}
	.st209{clip-path:url(#SVGID_400_);fill:#523D83;}
	.st210{clip-path:url(#SVGID_402_);}
	.st211{clip-path:url(#SVGID_404_);fill:#523D83;}
	.st212{clip-path:url(#SVGID_406_);}
	.st213{clip-path:url(#SVGID_408_);fill:#523D83;}
	.st214{clip-path:url(#SVGID_410_);}
	.st215{clip-path:url(#SVGID_412_);fill:#523D83;}
	.st216{clip-path:url(#SVGID_414_);}
	.st217{clip-path:url(#SVGID_416_);fill:#523D83;}
	.st218{clip-path:url(#SVGID_418_);}
	.st219{clip-path:url(#SVGID_420_);fill:#523D83;}
	.st220{clip-path:url(#SVGID_422_);}
	.st221{clip-path:url(#SVGID_424_);fill:#523D83;}
	.st222{clip-path:url(#SVGID_426_);}
	.st223{clip-path:url(#SVGID_428_);fill:#523D83;}
	.st224{clip-path:url(#SVGID_430_);}
	.st225{clip-path:url(#SVGID_432_);fill:#523D83;}
	.st226{clip-path:url(#SVGID_434_);}
	.st227{clip-path:url(#SVGID_436_);fill:#523D83;}
	.st228{clip-path:url(#SVGID_438_);}
	.st229{clip-path:url(#SVGID_440_);fill:#523D83;}
	.st230{clip-path:url(#SVGID_252_);fill:#4E3881;}
	.st231{opacity:0.4;clip-path:url(#SVGID_442_);}
	.st232{clip-path:url(#SVGID_444_);}
	.st233{clip-path:url(#SVGID_446_);fill:#523D83;}
	.st234{clip-path:url(#SVGID_448_);}
	.st235{clip-path:url(#SVGID_450_);fill:#523D83;}
	.st236{clip-path:url(#SVGID_452_);}
	.st237{clip-path:url(#SVGID_454_);fill:#523D83;}
	.st238{clip-path:url(#SVGID_456_);}
	.st239{clip-path:url(#SVGID_458_);fill:#523D83;}
	.st240{clip-path:url(#SVGID_460_);}
	.st241{clip-path:url(#SVGID_462_);fill:#523D83;}
	.st242{clip-path:url(#SVGID_464_);}
	.st243{clip-path:url(#SVGID_466_);fill:#523D83;}
	.st244{clip-path:url(#SVGID_468_);}
	.st245{clip-path:url(#SVGID_470_);fill:#523D83;}
	.st246{clip-path:url(#SVGID_472_);}
	.st247{clip-path:url(#SVGID_474_);fill:#523D83;}
	.st248{clip-path:url(#SVGID_476_);}
	.st249{clip-path:url(#SVGID_478_);fill:#523D83;}
	.st250{clip-path:url(#SVGID_480_);}
	.st251{clip-path:url(#SVGID_482_);fill:#523D83;}
	.st252{clip-path:url(#SVGID_484_);}
	.st253{clip-path:url(#SVGID_486_);fill:#523D83;}
	.st254{clip-path:url(#SVGID_488_);}
	.st255{clip-path:url(#SVGID_490_);fill:#523D83;}
	.st256{clip-path:url(#SVGID_492_);}
	.st257{clip-path:url(#SVGID_494_);fill:#523D83;}
	.st258{clip-path:url(#SVGID_496_);}
	.st259{clip-path:url(#SVGID_498_);fill:#523D83;}
	.st260{clip-path:url(#SVGID_500_);}
	.st261{clip-path:url(#SVGID_502_);fill:#523D83;}
	.st262{clip-path:url(#SVGID_504_);}
	.st263{clip-path:url(#SVGID_506_);fill:#523D83;}
	.st264{clip-path:url(#SVGID_508_);}
	.st265{clip-path:url(#SVGID_510_);fill:#523D83;}
	.st266{clip-path:url(#SVGID_512_);}
	.st267{clip-path:url(#SVGID_514_);fill:#523D83;}
	.st268{clip-path:url(#SVGID_516_);}
	.st269{clip-path:url(#SVGID_518_);fill:#523D83;}
	.st270{clip-path:url(#SVGID_520_);}
	.st271{clip-path:url(#SVGID_522_);fill:#523D83;}
	.st272{clip-path:url(#SVGID_524_);}
	.st273{clip-path:url(#SVGID_526_);fill:#523D83;}
	.st274{clip-path:url(#SVGID_528_);}
	.st275{clip-path:url(#SVGID_530_);fill:#523D83;}
	.st276{clip-path:url(#SVGID_532_);}
	.st277{clip-path:url(#SVGID_534_);fill:#523D83;}
	.st278{clip-path:url(#SVGID_536_);}
	.st279{clip-path:url(#SVGID_538_);fill:#523D83;}
	.st280{clip-path:url(#SVGID_540_);}
	.st281{clip-path:url(#SVGID_542_);fill:#523D83;}
	.st282{clip-path:url(#SVGID_544_);}
	.st283{clip-path:url(#SVGID_546_);fill:#523D83;}
	.st284{clip-path:url(#SVGID_548_);}
	.st285{clip-path:url(#SVGID_550_);fill:#523D83;}
	.st286{clip-path:url(#SVGID_552_);}
	.st287{clip-path:url(#SVGID_554_);fill:#523D83;}
	.st288{clip-path:url(#SVGID_556_);}
	.st289{clip-path:url(#SVGID_558_);fill:#523D83;}
	.st290{clip-path:url(#SVGID_560_);}
	.st291{clip-path:url(#SVGID_562_);fill:#523D83;}
	.st292{clip-path:url(#SVGID_564_);}
	.st293{clip-path:url(#SVGID_566_);fill:#523D83;}
	.st294{clip-path:url(#SVGID_568_);}
	.st295{clip-path:url(#SVGID_570_);fill:#523D83;}
	.st296{clip-path:url(#SVGID_572_);}
	.st297{clip-path:url(#SVGID_574_);fill:#523D83;}
	.st298{clip-path:url(#SVGID_576_);}
	.st299{clip-path:url(#SVGID_578_);fill:#523D83;}
	.st300{clip-path:url(#SVGID_580_);}
	.st301{clip-path:url(#SVGID_582_);fill:#523D83;}
	.st302{clip-path:url(#SVGID_584_);}
	.st303{clip-path:url(#SVGID_586_);fill:#523D83;}
	.st304{clip-path:url(#SVGID_588_);}
	.st305{clip-path:url(#SVGID_590_);fill:#523D83;}
	.st306{clip-path:url(#SVGID_592_);}
	.st307{clip-path:url(#SVGID_594_);fill:#523D83;}
	.st308{clip-path:url(#SVGID_596_);}
	.st309{clip-path:url(#SVGID_598_);fill:#523D83;}
	.st310{clip-path:url(#SVGID_600_);}
	.st311{clip-path:url(#SVGID_602_);fill:#523D83;}
	.st312{clip-path:url(#SVGID_604_);}
	.st313{clip-path:url(#SVGID_606_);fill:#523D83;}
	.st314{clip-path:url(#SVGID_608_);}
	.st315{clip-path:url(#SVGID_610_);fill:#523D83;}
	.st316{clip-path:url(#SVGID_612_);}
	.st317{clip-path:url(#SVGID_614_);fill:#523D83;}
	.st318{clip-path:url(#SVGID_616_);}
	.st319{clip-path:url(#SVGID_618_);fill:#523D83;}
	.st320{clip-path:url(#SVGID_442_);fill:#4E3881;}
	.st321{opacity:0.4;clip-path:url(#SVGID_620_);}
	.st322{clip-path:url(#SVGID_622_);}
	.st323{clip-path:url(#SVGID_624_);fill:#523D83;}
	.st324{clip-path:url(#SVGID_626_);}
	.st325{clip-path:url(#SVGID_628_);fill:#523D83;}
	.st326{clip-path:url(#SVGID_630_);}
	.st327{clip-path:url(#SVGID_632_);fill:#523D83;}
	.st328{clip-path:url(#SVGID_634_);}
	.st329{clip-path:url(#SVGID_636_);fill:#523D83;}
	.st330{clip-path:url(#SVGID_638_);}
	.st331{clip-path:url(#SVGID_640_);fill:#523D83;}
	.st332{clip-path:url(#SVGID_642_);}
	.st333{clip-path:url(#SVGID_644_);fill:#523D83;}
	.st334{clip-path:url(#SVGID_646_);}
	.st335{clip-path:url(#SVGID_648_);fill:#523D83;}
	.st336{clip-path:url(#SVGID_650_);}
	.st337{clip-path:url(#SVGID_652_);fill:#523D83;}
	.st338{clip-path:url(#SVGID_654_);}
	.st339{clip-path:url(#SVGID_656_);fill:#523D83;}
	.st340{clip-path:url(#SVGID_658_);}
	.st341{clip-path:url(#SVGID_660_);fill:#523D83;}
	.st342{clip-path:url(#SVGID_662_);}
	.st343{clip-path:url(#SVGID_664_);fill:#523D83;}
	.st344{clip-path:url(#SVGID_666_);}
	.st345{clip-path:url(#SVGID_668_);fill:#523D83;}
	.st346{clip-path:url(#SVGID_670_);}
	.st347{clip-path:url(#SVGID_672_);fill:#523D83;}
	.st348{clip-path:url(#SVGID_674_);}
	.st349{clip-path:url(#SVGID_676_);fill:#523D83;}
	.st350{clip-path:url(#SVGID_678_);}
	.st351{clip-path:url(#SVGID_680_);fill:#523D83;}
	.st352{clip-path:url(#SVGID_682_);}
	.st353{clip-path:url(#SVGID_684_);fill:#523D83;}
	.st354{clip-path:url(#SVGID_686_);}
	.st355{clip-path:url(#SVGID_688_);fill:#523D83;}
	.st356{clip-path:url(#SVGID_690_);}
	.st357{clip-path:url(#SVGID_692_);fill:#523D83;}
	.st358{clip-path:url(#SVGID_694_);}
	.st359{clip-path:url(#SVGID_696_);fill:#523D83;}
	.st360{clip-path:url(#SVGID_698_);}
	.st361{clip-path:url(#SVGID_700_);fill:#523D83;}
	.st362{clip-path:url(#SVGID_702_);}
	.st363{clip-path:url(#SVGID_704_);fill:#523D83;}
	.st364{clip-path:url(#SVGID_706_);}
	.st365{clip-path:url(#SVGID_708_);fill:#523D83;}
	.st366{clip-path:url(#SVGID_710_);}
	.st367{clip-path:url(#SVGID_712_);fill:#523D83;}
	.st368{clip-path:url(#SVGID_714_);}
	.st369{clip-path:url(#SVGID_716_);fill:#523D83;}
	.st370{clip-path:url(#SVGID_718_);}
	.st371{clip-path:url(#SVGID_720_);fill:#523D83;}
	.st372{clip-path:url(#SVGID_722_);}
	.st373{clip-path:url(#SVGID_724_);fill:#523D83;}
	.st374{clip-path:url(#SVGID_726_);}
	.st375{clip-path:url(#SVGID_728_);fill:#523D83;}
	.st376{clip-path:url(#SVGID_730_);}
	.st377{clip-path:url(#SVGID_732_);fill:#523D83;}
	.st378{clip-path:url(#SVGID_734_);}
	.st379{clip-path:url(#SVGID_736_);fill:#523D83;}
	.st380{clip-path:url(#SVGID_620_);fill:#4E3881;}
	.st381{clip-path:url(#SVGID_738_);}
	.st382{clip-path:url(#SVGID_740_);}
	.st383{clip-path:url(#SVGID_742_);}
	.st384{opacity:0.4;clip-path:url(#SVGID_744_);}
	.st385{opacity:0.4;clip-path:url(#SVGID_748_);}
	.st386{opacity:0.4;clip-path:url(#SVGID_754_);}
	.st387{opacity:0.4;clip-path:url(#SVGID_758_);}
	.st388{clip-path:url(#SVGID_760_);}
	.st389{clip-path:url(#SVGID_762_);fill:#4E3881;}
	.st390{clip-path:url(#SVGID_764_);}
	.st391{clip-path:url(#SVGID_766_);fill:#4E3881;}
	.st392{clip-path:url(#SVGID_768_);}
	.st393{clip-path:url(#SVGID_770_);fill:#4E3881;}
	.st394{clip-path:url(#SVGID_772_);}
	.st395{clip-path:url(#SVGID_774_);fill:#4E3881;}
	.st396{clip-path:url(#SVGID_776_);}
	.st397{clip-path:url(#SVGID_778_);fill:#4E3881;}
	.st398{clip-path:url(#SVGID_780_);}
	.st399{clip-path:url(#SVGID_782_);fill:#4E3881;}
	.st400{clip-path:url(#SVGID_784_);}
	.st401{clip-path:url(#SVGID_786_);fill:#4E3881;}
	.st402{clip-path:url(#SVGID_788_);}
	.st403{clip-path:url(#SVGID_790_);fill:#4E3881;}
	.st404{clip-path:url(#SVGID_792_);}
	.st405{clip-path:url(#SVGID_794_);fill:#4E3881;}
	.st406{clip-path:url(#SVGID_796_);}
	.st407{clip-path:url(#SVGID_798_);fill:#4E3881;}
	.st408{clip-path:url(#SVGID_800_);}
	.st409{clip-path:url(#SVGID_802_);fill:#4E3881;}
	.st410{clip-path:url(#SVGID_804_);}
	.st411{clip-path:url(#SVGID_806_);fill:#4E3881;}
	.st412{clip-path:url(#SVGID_808_);}
	.st413{clip-path:url(#SVGID_810_);fill:#4E3881;}
	.st414{clip-path:url(#SVGID_812_);}
	.st415{clip-path:url(#SVGID_814_);fill:#4E3881;}
	.st416{clip-path:url(#SVGID_816_);}
	.st417{clip-path:url(#SVGID_818_);fill:#4E3881;}
	.st418{clip-path:url(#SVGID_820_);}
	.st419{clip-path:url(#SVGID_822_);fill:#4E3881;}
	.st420{clip-path:url(#SVGID_824_);}
	.st421{clip-path:url(#SVGID_826_);fill:#4E3881;}
	.st422{clip-path:url(#SVGID_828_);}
	.st423{clip-path:url(#SVGID_830_);fill:#4E3881;}
	.st424{clip-path:url(#SVGID_832_);}
	.st425{clip-path:url(#SVGID_834_);fill:#4E3881;}
	.st426{clip-path:url(#SVGID_836_);}
	.st427{clip-path:url(#SVGID_838_);fill:#4E3881;}
	.st428{clip-path:url(#SVGID_840_);}
	.st429{clip-path:url(#SVGID_842_);fill:#4E3881;}
	.st430{clip-path:url(#SVGID_844_);}
	.st431{clip-path:url(#SVGID_846_);fill:#4E3881;}
	.st432{clip-path:url(#SVGID_848_);}
	.st433{clip-path:url(#SVGID_850_);fill:#4E3881;}
	.st434{clip-path:url(#SVGID_852_);}
	.st435{clip-path:url(#SVGID_854_);fill:#4E3881;}
	.st436{clip-path:url(#SVGID_856_);}
	.st437{clip-path:url(#SVGID_858_);fill:#4E3881;}
	.st438{clip-path:url(#SVGID_860_);}
	.st439{clip-path:url(#SVGID_862_);fill:#4E3881;}
	.st440{clip-path:url(#SVGID_864_);}
	.st441{clip-path:url(#SVGID_866_);fill:#4E3881;}
	.st442{clip-path:url(#SVGID_868_);}
	.st443{clip-path:url(#SVGID_870_);fill:#4E3881;}
	.st444{clip-path:url(#SVGID_872_);}
	.st445{clip-path:url(#SVGID_874_);fill:#4E3881;}
	.st446{clip-path:url(#SVGID_876_);}
	.st447{clip-path:url(#SVGID_878_);fill:#4E3881;}
	.st448{clip-path:url(#SVGID_880_);}
	.st449{clip-path:url(#SVGID_882_);fill:#4E3881;}
	.st450{clip-path:url(#SVGID_884_);}
	.st451{clip-path:url(#SVGID_886_);fill:#4E3881;}
	.st452{clip-path:url(#SVGID_888_);}
	.st453{clip-path:url(#SVGID_890_);fill:#4E3881;}
	.st454{clip-path:url(#SVGID_892_);}
	.st455{clip-path:url(#SVGID_894_);fill:#4E3881;}
	.st456{clip-path:url(#SVGID_896_);}
	.st457{clip-path:url(#SVGID_898_);fill:#4E3881;}
	.st458{clip-path:url(#SVGID_900_);}
	.st459{clip-path:url(#SVGID_902_);fill:#4E3881;}
	.st460{clip-path:url(#SVGID_904_);}
	.st461{clip-path:url(#SVGID_906_);fill:#4E3881;}
	.st462{clip-path:url(#SVGID_908_);}
	.st463{clip-path:url(#SVGID_910_);fill:#4E3881;}
	.st464{clip-path:url(#SVGID_912_);}
	.st465{clip-path:url(#SVGID_914_);fill:#4E3881;}
	.st466{clip-path:url(#SVGID_758_);fill:#4E3881;}
	.st467{clip-path:url(#SVGID_916_);}
	.st468{clip-path:url(#SVGID_918_);}
	.st469{clip-path:url(#SVGID_920_);}
	.st470{opacity:0.4;clip-path:url(#SVGID_922_);}
	.st471{opacity:0.4;clip-path:url(#SVGID_926_);}
	.st472{opacity:0.4;clip-path:url(#SVGID_932_);}
	.st473{clip-path:url(#SVGID_920_);fill:#CEC6DB;}
	.st474{clip-path:url(#SVGID_920_);fill:#4F3783;}
	.st475{opacity:0.4;clip-path:url(#SVGID_936_);}
	.st476{clip-path:url(#SVGID_938_);}
	.st477{clip-path:url(#SVGID_940_);fill:#523D83;}
	.st478{clip-path:url(#SVGID_942_);}
	.st479{clip-path:url(#SVGID_944_);fill:#523D83;}
	.st480{clip-path:url(#SVGID_946_);}
	.st481{clip-path:url(#SVGID_948_);fill:#523D83;}
	.st482{clip-path:url(#SVGID_950_);}
	.st483{clip-path:url(#SVGID_952_);fill:#523D83;}
	.st484{clip-path:url(#SVGID_954_);}
	.st485{clip-path:url(#SVGID_956_);fill:#523D83;}
	.st486{clip-path:url(#SVGID_958_);}
	.st487{clip-path:url(#SVGID_960_);fill:#523D83;}
	.st488{clip-path:url(#SVGID_962_);}
	.st489{clip-path:url(#SVGID_964_);fill:#523D83;}
	.st490{clip-path:url(#SVGID_966_);}
	.st491{clip-path:url(#SVGID_968_);fill:#523D83;}
	.st492{clip-path:url(#SVGID_970_);}
	.st493{clip-path:url(#SVGID_972_);fill:#523D83;}
	.st494{clip-path:url(#SVGID_974_);}
	.st495{clip-path:url(#SVGID_976_);fill:#523D83;}
	.st496{clip-path:url(#SVGID_978_);}
	.st497{clip-path:url(#SVGID_980_);fill:#523D83;}
	.st498{clip-path:url(#SVGID_982_);}
	.st499{clip-path:url(#SVGID_984_);fill:#523D83;}
	.st500{clip-path:url(#SVGID_936_);fill:#4E3881;}
	.st501{clip-path:url(#SVGID_936_);fill:#523D83;}
	.st502{clip-path:url(#SVGID_936_);fill:#F7695A;}
	.st503{clip-path:url(#SVGID_986_);}
	.st504{clip-path:url(#SVGID_988_);fill:#523D83;}
	.st505{clip-path:url(#SVGID_990_);}
	.st506{clip-path:url(#SVGID_992_);fill:#523D83;}
	.st507{clip-path:url(#SVGID_994_);}
	.st508{clip-path:url(#SVGID_996_);fill:#523D83;}
	.st509{clip-path:url(#SVGID_998_);}
	.st510{clip-path:url(#SVGID_1000_);fill:#523D83;}
	.st511{clip-path:url(#SVGID_1002_);}
	.st512{clip-path:url(#SVGID_1004_);fill:#523D83;}
	.st513{clip-path:url(#SVGID_1006_);}
	.st514{clip-path:url(#SVGID_1008_);fill:#523D83;}
	.st515{clip-path:url(#SVGID_1010_);}
	.st516{clip-path:url(#SVGID_1012_);fill:#523D83;}
	.st517{clip-path:url(#SVGID_1014_);}
	.st518{clip-path:url(#SVGID_1016_);fill:#523D83;}
	.st519{clip-path:url(#SVGID_1018_);}
	.st520{clip-path:url(#SVGID_1020_);fill:#523D83;}
	.st521{clip-path:url(#SVGID_1022_);}
	.st522{clip-path:url(#SVGID_1024_);fill:#523D83;}
	.st523{clip-path:url(#SVGID_1026_);}
	.st524{clip-path:url(#SVGID_1028_);fill:#523D83;}
	.st525{clip-path:url(#SVGID_1030_);fill:#B8B0CC;}
	.st526{clip-path:url(#SVGID_1030_);fill:#4F3882;}
</style>
<g>
	<g>
		<path class="st2" d="M347.9,313.1c-3.4,0-6.7-1.3-9.3-3.8L223.1,193.8c-5.1-5.1-5.1-13.4,0-18.6s13.4-5.1,18.6,0l115.5,115.5
			c5.1,5.1,5.1,13.4,0,18.6C354.6,311.8,351.2,313.1,347.9,313.1z"/>
	</g>
	<g>
		<path class="st2" d="M232.3,428.6c-3.4,0-6.7-1.3-9.3-3.8c-5.1-5.1-5.1-13.4,0-18.6l115.5-115.5c5.1-5.1,13.4-5.1,18.6,0
			c5.1,5.1,5.1,13.4,0,18.6L241.6,424.8C239.1,427.4,235.7,428.6,232.3,428.6z"/>
	</g>
</g>
</svg>
